%!PS-Adobe-3.0 EPSF-3.0
%%Creator: cairo 1.16.0 (https://cairographics.org)
%%CreationDate: Thu Nov 03 17:40:43 2022
%%Pages: 1
%%DocumentData: Clean7Bit
%%LanguageLevel: 2
%%BoundingBox: 0 0 381 171
%%EndComments
%%BeginProlog
50 dict begin
/q { gsave } bind def
/Q { grestore } bind def
/cm { 6 array astore concat } bind def
/w { setlinewidth } bind def
/J { setlinecap } bind def
/j { setlinejoin } bind def
/M { setmiterlimit } bind def
/d { setdash } bind def
/m { moveto } bind def
/l { lineto } bind def
/c { curveto } bind def
/h { closepath } bind def
/re { exch dup neg 3 1 roll 5 3 roll moveto 0 rlineto
      0 exch rlineto 0 rlineto closepath } bind def
/S { stroke } bind def
/f { fill } bind def
/f* { eofill } bind def
/n { newpath } bind def
/W { clip } bind def
/W* { eoclip } bind def
/BT { } bind def
/ET { } bind def
/BDC { mark 3 1 roll /BDC pdfmark } bind def
/EMC { mark /EMC pdfmark } bind def
/cairo_store_point { /cairo_point_y exch def /cairo_point_x exch def } def
/Tj { show currentpoint cairo_store_point } bind def
/TJ {
  {
    dup
    type /stringtype eq
    { show } { -0.001 mul 0 cairo_font_matrix dtransform rmoveto } ifelse
  } forall
  currentpoint cairo_store_point
} bind def
/cairo_selectfont { cairo_font_matrix aload pop pop pop 0 0 6 array astore
    cairo_font exch selectfont cairo_point_x cairo_point_y moveto } bind def
/Tf { pop /cairo_font exch def /cairo_font_matrix where
      { pop cairo_selectfont } if } bind def
/Td { matrix translate cairo_font_matrix matrix concatmatrix dup
      /cairo_font_matrix exch def dup 4 get exch 5 get cairo_store_point
      /cairo_font where { pop cairo_selectfont } if } bind def
/Tm { 2 copy 8 2 roll 6 array astore /cairo_font_matrix exch def
      cairo_store_point /cairo_font where { pop cairo_selectfont } if } bind def
/g { setgray } bind def
/rg { setrgbcolor } bind def
/d1 { setcachedevice } bind def
/cairo_data_source {
  CairoDataIndex CairoData length lt
    { CairoData CairoDataIndex get /CairoDataIndex CairoDataIndex 1 add def }
    { () } ifelse
} def
/cairo_flush_ascii85_file { cairo_ascii85_file status { cairo_ascii85_file flushfile } if } def
/cairo_image { image cairo_flush_ascii85_file } def
/cairo_imagemask { imagemask cairo_flush_ascii85_file } def
%%EndProlog
%%BeginSetup
%%EndSetup
%%Page: 1 1
%%BeginPageSetup
%%PageBoundingBox: 0 0 381 171
%%EndPageSetup
q 0 0 381 171 rectclip
1 0 0 -1 0 171 cm q
0.0196078 0.364706 0.403922 rg
0 0 380.117 170.566 re f
1 g
76.629 82.082 m 76.629 100.352 61.258 114.125 40.672 114.125 c 27.332 114.125
 15.441 108.18 6.891 97.887 c 10.516 93.246 l 17.617 102.383 28.348 108.18
 40.379 108.18 c 57.633 108.18 70.105 96.871 70.105 82.082 c 70.105 67.293
 58.215 56.129 41.832 56.129 c 32.262 56.129 22.547 60.047 16.602 65.699
 c 11.238 63.813 l 16.023 12.344 l 69.668 12.344 l 69.668 18.145 l 21.242
 18.145 l 17.328 58.742 l 23.273 53.813 32.84 50.332 42.41 50.332 c 61.984
 50.332 76.629 63.961 76.629 82.082 c f
153.969 62.363 m 153.969 35.398 141.063 16.547 122.652 16.547 c 104.383
 16.547 91.332 35.398 91.332 62.363 c 91.332 89.332 104.383 108.18 122.652
 108.18 c 141.063 108.18 153.969 89.332 153.969 62.363 c 84.953 62.363 m
 84.953 31.773 100.469 10.605 122.652 10.605 c 144.836 10.605 160.348 31.773
 160.348 62.363 c 160.348 92.957 144.836 114.125 122.652 114.125 c 100.469
 114.125 84.953 92.957 84.953 62.363 c f
177.637 73.238 m 177.637 12.344 l 205.328 12.344 l 205.328 72.805 l 205.328
 81.215 211.563 87.449 219.973 87.449 c 228.383 87.449 234.617 81.215 234.617
 72.805 c 234.617 12.344 l 262.309 12.344 l 262.309 73.238 l 262.309 96.582
 244.039 114.125 219.973 114.125 c 195.906 114.125 177.637 96.582 177.637
 73.238 c f
270.633 62.363 m 270.633 32.93 293.543 10.605 323.844 10.605 c 342.836 
10.605 358.93 19.301 368.355 33.078 c 344.434 47.867 l 339.938 41.34 332.543
 37.281 323.844 37.281 c 309.781 37.281 299.051 48.012 299.051 62.363 c 
299.051 76.719 309.781 87.449 323.844 87.449 c 332.543 87.449 339.938 83.387
 344.434 76.863 c 368.355 91.652 l 358.93 105.426 342.836 114.125 323.844
 114.125 c 293.543 114.125 270.633 91.797 270.633 62.363 c f
7.355 148.645 m 7.355 136.117 l 9.176 136.117 l 9.176 148.645 l 9.176 152.223
 11.875 154.953 15.512 154.953 c 19.121 154.953 21.82 152.223 21.82 148.645
 c 21.82 136.117 l 23.637 136.117 l 23.637 148.645 l 23.637 153.25 20.117
 156.711 15.512 156.711 c 10.879 156.711 7.355 153.25 7.355 148.645 c f
41.828 147.297 m 41.828 156.359 l 40.125 156.359 l 40.125 147.793 l 40.125
 144.715 38.102 142.691 35.051 142.691 c 31.883 142.691 29.742 144.742 29.742
 147.852 c 29.742 156.359 l 28.039 156.359 l 28.039 141.398 l 29.742 141.398
 l 29.742 144.215 l 30.855 142.191 32.91 141.047 35.551 141.047 c 39.305
 141.047 41.828 143.512 41.828 147.297 c f
46.289 141.398 m 47.988 141.398 l 47.988 156.359 l 46.289 156.359 l h
45.906 136.645 m 45.906 135.973 46.465 135.441 47.137 135.441 c 47.844 
135.441 48.398 135.973 48.398 136.645 c 48.398 137.352 47.844 137.879 47.137
 137.879 c 46.465 137.879 45.906 137.352 45.906 136.645 c f
66.383 141.398 m 59.578 156.359 l 57.73 156.359 l 50.922 141.398 l 52.891
 141.398 l 58.695 154.395 l 64.477 141.398 l h
66.383 141.398 m f
69.258 148.086 m 81.258 148.086 l 80.906 144.891 78.441 142.633 75.242 
142.633 c 72.047 142.633 69.613 144.891 69.258 148.086 c 82.988 149.613 
m 69.258 149.613 l 69.613 152.84 72.191 155.129 75.625 155.129 c 78.063 
155.129 80.141 153.953 81.227 152.281 c 82.43 153.281 l 80.992 155.391 78.5
 156.715 75.566 156.715 c 70.93 156.715 67.469 153.309 67.469 148.852 c 
67.469 144.391 70.813 141.047 75.273 141.047 c 79.703 141.047 83.047 144.391
 83.047 148.879 c 83.047 149.113 83.016 149.379 82.988 149.613 c f
94.402 141.164 m 94.402 142.926 l 93.961 142.926 l 90.527 142.926 88.328
 145.152 88.328 148.645 c 88.328 156.359 l 86.629 156.359 l 86.629 141.398
 l 88.328 141.398 l 88.328 144.539 l 89.414 142.426 91.41 141.164 93.961
 141.164 c h
94.402 141.164 m f
95.988 154.336 m 96.953 153.105 l 98.07 154.367 99.801 155.16 101.855 155.16
 c 104.199 155.16 105.961 154.102 105.961 152.457 c 105.961 150.641 103.996
 150.109 101.824 149.582 c 99.301 148.938 96.484 148.203 96.484 145.242 
c 96.484 142.516 99.035 141.047 101.969 141.047 c 104.23 141.047 106.047
 141.926 107.254 143.129 c 106.285 144.391 l 105.285 143.305 103.762 142.602
 102 142.602 c 99.918 142.602 98.246 143.57 98.246 145.125 c 98.246 146.973
 100.242 147.5 102.469 148.027 c 104.965 148.645 107.719 149.348 107.719
 152.281 c 107.719 155.07 105.168 156.715 101.883 156.715 c 99.359 156.715
 97.309 155.715 95.988 154.336 c f
111.27 141.398 m 112.973 141.398 l 112.973 156.359 l 111.27 156.359 l h
110.891 136.645 m 110.891 135.973 111.445 135.441 112.121 135.441 c 112.824
 135.441 113.383 135.973 113.383 136.645 c 113.383 137.352 112.824 137.879
 112.121 137.879 c 111.445 137.879 110.891 137.352 110.891 136.645 c f
130.75 148.879 m 130.75 145.359 128.109 142.691 124.59 142.691 c 121.102
 142.691 118.461 145.359 118.461 148.879 c 118.461 152.398 121.102 155.07
 124.59 155.07 c 128.109 155.07 130.75 152.398 130.75 148.879 c 132.453 
135.238 m 132.453 156.359 l 130.75 156.359 l 130.75 152.898 l 129.52 155.215
 127.172 156.715 124.297 156.715 c 119.957 156.715 116.699 153.34 116.699
 148.879 c 116.699 144.422 119.957 141.047 124.297 141.047 c 127.172 141.047
 129.52 142.543 130.75 144.859 c 130.75 135.238 l h
132.453 135.238 m f
150.203 148.879 m 150.203 145.359 147.563 142.691 144.039 142.691 c 140.551
 142.691 137.91 145.359 137.91 148.879 c 137.91 152.398 140.551 155.07 144.039
 155.07 c 147.563 155.07 150.203 152.398 150.203 148.879 c 151.902 141.398
 m 151.902 156.359 l 150.203 156.359 l 150.203 152.898 l 148.969 155.215
 146.621 156.715 143.746 156.715 c 139.406 156.715 136.148 153.34 136.148
 148.879 c 136.148 144.422 139.406 141.047 143.746 141.047 c 146.621 141.047
 148.969 142.543 150.203 144.859 c 150.203 141.398 l h
151.902 141.398 m f
169.652 148.879 m 169.652 145.359 167.012 142.691 163.492 142.691 c 160.004
 142.691 157.359 145.359 157.359 148.879 c 157.359 152.398 160.004 155.07
 163.492 155.07 c 167.012 155.07 169.652 152.398 169.652 148.879 c 171.355
 135.238 m 171.355 156.359 l 169.652 156.359 l 169.652 152.898 l 168.422
 155.215 166.074 156.715 163.199 156.715 c 158.855 156.715 155.602 153.34
 155.602 148.879 c 155.602 144.422 158.855 141.047 163.199 141.047 c 166.074
 141.047 168.422 142.543 169.652 144.859 c 169.652 135.238 l h
171.355 135.238 m f
196.73 148.879 m 196.73 145.359 194.09 142.691 190.57 142.691 c 187.082
 142.691 184.438 145.359 184.438 148.879 c 184.438 152.398 187.082 155.07
 190.57 155.07 c 194.09 155.07 196.73 152.398 196.73 148.879 c 198.434 135.238
 m 198.434 156.359 l 196.73 156.359 l 196.73 152.898 l 195.5 155.215 193.152
 156.715 190.277 156.715 c 185.938 156.715 182.68 153.34 182.68 148.879 
c 182.68 144.422 185.938 141.047 190.277 141.047 c 193.152 141.047 195.5
 142.543 196.73 144.859 c 196.73 135.238 l h
198.434 135.238 m f
203.891 148.086 m 215.891 148.086 l 215.535 144.891 213.074 142.633 209.875
 142.633 c 206.676 142.633 204.242 144.891 203.891 148.086 c 217.621 149.613
 m 203.891 149.613 l 204.242 152.84 206.824 155.129 210.258 155.129 c 212.691
 155.129 214.773 153.953 215.859 152.281 c 217.063 153.281 l 215.625 155.391
 213.129 156.715 210.199 156.715 c 205.563 156.715 202.102 153.309 202.102
 148.852 c 202.102 144.391 205.445 141.047 209.906 141.047 c 214.336 141.047
 217.68 144.391 217.68 148.879 c 217.68 149.113 217.648 149.379 217.621 
149.613 c f
227.508 146.238 m 227.508 140.285 232.113 135.766 238.215 135.766 c 242.031
 135.766 245.258 137.527 247.164 140.313 c 243.234 142.746 l 242.148 141.164
 240.328 140.137 238.215 140.137 c 234.781 140.137 232.172 142.746 232.172
 146.238 c 232.172 149.73 234.781 152.344 238.215 152.344 c 240.328 152.344
 242.148 151.313 243.234 149.73 c 247.164 152.164 l 245.258 154.953 242.031
 156.715 238.215 156.715 c 232.113 156.715 227.508 152.195 227.508 146.238
 c f
260.07 148.879 m 260.07 146.766 258.516 145.184 256.406 145.184 c 254.32
 145.184 252.766 146.766 252.766 148.879 c 252.766 150.992 254.32 152.574
 256.406 152.574 c 258.516 152.574 260.07 150.992 260.07 148.879 c 264.355
 141.398 m 264.355 156.359 l 260.07 156.359 l 260.07 154.863 l 258.926 156.039
 257.375 156.715 255.555 156.715 c 251.445 156.715 248.34 153.34 248.34 
148.879 c 248.34 144.422 251.445 141.047 255.555 141.047 c 257.375 141.047
 258.926 141.723 260.07 142.895 c 260.07 141.398 l h
264.355 141.398 m f
282.309 146.738 m 282.309 156.359 l 278.027 156.359 l 278.027 148.176 l
 278.027 146.355 276.883 145.184 275.121 145.184 c 273.305 145.184 272.043
 146.387 272.043 148.234 c 272.043 156.359 l 267.758 156.359 l 267.758 141.398
 l 272.043 141.398 l 272.043 142.895 l 273.215 141.691 274.742 141.047 276.59
 141.047 c 280.02 141.047 282.309 143.305 282.309 146.738 c f
290.465 145.301 m 290.465 150.785 l 290.465 151.93 291.082 152.574 292.344
 152.574 c 293.109 152.574 293.75 152.344 294.309 152.047 c 294.309 156.066
 l 293.43 156.508 292.578 156.715 291.434 156.715 c 287.797 156.715 286.184
 154.57 286.184 151.488 c 286.184 145.301 l 283.926 145.301 l 283.926 141.398
 l 286.184 141.398 l 286.184 137.703 l 290.465 137.703 l 290.465 141.398
 l 294.309 141.398 l 294.309 145.301 l h
290.465 145.301 m f
307.48 148.879 m 307.48 146.766 305.926 145.184 303.813 145.184 c 301.73
 145.184 300.176 146.766 300.176 148.879 c 300.176 150.992 301.73 152.574
 303.813 152.574 c 305.926 152.574 307.48 150.992 307.48 148.879 c 311.766
 141.398 m 311.766 156.359 l 307.48 156.359 l 307.48 154.863 l 306.336 156.039
 304.785 156.715 302.965 156.715 c 298.855 156.715 295.75 153.34 295.75 
148.879 c 295.75 144.422 298.855 141.047 302.965 141.047 c 304.785 141.047
 306.336 141.723 307.48 142.895 c 307.48 141.398 l h
311.766 141.398 m f
326.785 148.879 m 326.785 146.766 325.23 145.184 323.117 145.184 c 321.008
 145.184 319.453 146.766 319.453 148.879 c 319.453 150.992 321.008 152.574
 323.117 152.574 c 325.23 152.574 326.785 150.992 326.785 148.879 c 331.188
 148.879 m 331.188 153.34 328.105 156.715 323.969 156.715 c 322.152 156.715
 320.598 156.039 319.453 154.863 c 319.453 156.359 l 315.168 156.359 l 315.168
 135.238 l 319.453 135.238 l 319.453 142.895 l 320.598 141.723 322.152 141.047
 323.969 141.047 c 328.105 141.047 331.188 144.422 331.188 148.879 c f
342.746 141.164 m 342.746 145.563 l 342.102 145.563 l 339.488 145.563 338.055
 147.059 338.055 149.379 c 338.055 156.359 l 333.77 156.359 l 333.77 141.398
 l 338.055 141.398 l 338.055 143.102 l 339.109 141.867 340.488 141.164 342.102
 141.164 c h
342.746 141.164 m f
344.832 141.398 m 349.113 141.398 l 349.113 156.359 l 344.832 156.359 l
 h
344.332 136.852 m 344.332 135.355 345.477 134.242 346.969 134.242 c 348.496
 134.242 349.641 135.355 349.641 136.852 c 349.641 138.375 348.496 139.492
 346.969 139.492 c 345.477 139.492 344.332 138.375 344.332 136.852 c f
363.43 148.879 m 363.43 146.766 361.875 145.184 359.762 145.184 c 357.68
 145.184 356.125 146.766 356.125 148.879 c 356.125 150.992 357.68 152.574
 359.762 152.574 c 361.875 152.574 363.43 150.992 363.43 148.879 c 367.711
 141.398 m 367.711 156.359 l 363.43 156.359 l 363.43 154.863 l 362.285 156.039
 360.73 156.715 358.91 156.715 c 354.805 156.715 351.695 153.34 351.695 
148.879 c 351.695 144.422 354.805 141.047 358.91 141.047 c 360.73 141.047
 362.285 141.723 363.43 142.895 c 363.43 141.398 l h
367.711 141.398 m f
Q Q
showpage
%%Trailer
end
%%EOF
